<svg width="140" height="130" viewBox="0 0 140 130" fill="none" xmlns="http://www.w3.org/2000/svg">
<path d="M81.093 116.514H55.7773C55.2251 116.514 54.7773 116.961 54.7773 117.514V117.66C54.7773 117.906 54.8672 118.143 55.0339 118.325C58.1306 121.696 63.5621 126.22 67.6204 128.823C67.7753 128.923 67.9538 128.975 68.1378 128.977L69.4422 128.996C69.6529 128.999 69.8582 128.937 70.0297 128.814C73.6285 126.247 78.888 121.747 81.8562 118.319C82.0107 118.141 82.093 117.913 82.093 117.677V117.514C82.093 116.961 81.6453 116.514 81.093 116.514Z" fill="#4D7AED" stroke="#4D7AED"/>
<path d="M66.3775 1H70.3756H74.3186C74.7581 1 75.1461 1.28699 75.2748 1.70726L77.3744 8.56503C77.3896 8.61494 77.4088 8.66358 77.4317 8.71051L80.448 14.8975C80.4966 14.9972 80.5614 15.088 80.6398 15.1664L108.325 42.8512C108.512 43.0387 108.617 43.2931 108.617 43.5583V91.1651C108.617 91.4019 108.701 91.6309 108.854 91.8115L123.753 109.397C124.303 110.046 123.841 111.043 122.99 111.043H121.885H18.8661H16.6302C15.7617 111.043 15.3061 110.012 15.8908 109.37L31.8731 91.818C32.0408 91.6338 32.1337 91.3938 32.1337 91.1447V43.5583C32.1337 43.2931 32.2391 43.0387 32.4266 42.8512L60.0813 15.1965C60.1792 15.0986 60.2557 14.9814 60.306 14.8524L63.2697 7.24357L65.4452 1.63819C65.5945 1.25348 65.9648 1 66.3775 1Z" fill="#4D7AED" stroke="#4D7AED"/>
<path d="M122.967 38.9119L97.1553 11.2563C96.7876 10.8624 96.7982 10.2479 97.1792 9.86687L105.299 1.74748C105.705 1.34154 106.368 1.35996 106.751 1.78779L138.261 37.0053C138.425 37.1887 138.516 37.4261 138.516 37.6721V51.5701C138.516 52.1224 138.068 52.5701 137.516 52.5701H124.236C123.684 52.5701 123.236 52.1224 123.236 51.5701V39.5942C123.236 39.3409 123.14 39.0971 122.967 38.9119Z" fill="#4D7AED" stroke="#4D7AED"/>
<path d="M16.5484 38.9119L42.3603 11.2563C42.728 10.8624 42.7174 10.2479 42.3364 9.86687L34.217 1.74748C33.8111 1.34154 33.1474 1.35996 32.7646 1.78779L1.25421 37.0053C1.09015 37.1887 0.999451 37.4261 0.999451 37.6721V51.5701C0.999451 52.1224 1.44717 52.5701 1.99945 52.5701H15.2795C15.8318 52.5701 16.2795 52.1224 16.2795 51.5701V39.5942C16.2795 39.3409 16.3756 39.0971 16.5484 38.9119Z" fill="#4D7AED" stroke="#4D7AED"/>
</svg>
