<svg width="315" height="265" viewBox="0 0 315 265" fill="none" xmlns="http://www.w3.org/2000/svg">
<path d="M11.1612 203.879L99.6421 254.699C102.04 256.076 104.92 256.34 107.528 255.422L255.212 203.427C262.88 200.727 263.835 190.268 256.782 186.224L175.898 139.853C173.619 138.547 170.902 138.242 168.391 139.011L13.1114 186.557C5.16278 188.991 3.95276 199.738 11.1612 203.879Z" fill="#8D8C8B" stroke="black" stroke-width="11"/>
<path d="M14.1144 171.262L102.595 222.083C104.993 223.46 107.873 223.724 110.482 222.805L258.165 170.81C265.834 168.111 266.788 157.652 259.735 153.608L178.851 107.237C176.572 105.931 173.855 105.626 171.344 106.395L16.0645 153.941C8.11591 156.375 6.90589 167.122 14.1144 171.262Z" fill="#8D8C8B" stroke="black" stroke-width="11"/>
<path d="M17.2706 136.405L105.751 187.225C108.15 188.603 111.029 188.867 113.638 187.948L261.321 135.953C268.99 133.253 269.944 122.794 262.891 118.751L182.007 72.3794C179.729 71.0733 177.011 70.7685 174.501 71.5374L19.2207 119.083C11.2722 121.517 10.0621 132.265 17.2706 136.405Z" fill="#8D8C8B" stroke="black" stroke-width="11"/>
<path d="M20.2472 103.54L108.728 154.36C111.126 155.737 114.006 156.001 116.614 155.083L264.298 103.088C271.966 100.388 272.921 89.929 265.868 85.8853L184.983 39.5142C182.705 38.2081 179.988 37.9033 177.477 38.6721L22.1973 86.2182C14.2487 88.652 13.0387 99.3995 20.2472 103.54Z" fill="#8D8C8B" stroke="black" stroke-width="11"/>
<rect x="155.5" y="5.5" width="154" height="238" rx="9.5" fill="#8D8C8B" stroke="black" stroke-width="11"/>
<path d="M194 120.5L218.5 149.5L270.5 100" stroke="black" stroke-width="15"/>
</svg>
