<svg width="83" height="87" viewBox="0 0 83 87" fill="none" xmlns="http://www.w3.org/2000/svg">
<g filter="url(#filter0_d_151_1706)">
<rect width="58.6663" height="58.6023" rx="10" transform="matrix(0.707107 0.707107 0.707107 -0.707107 0 41.4375)" fill="#30996D"/>
<rect x="26.4609" y="37.4609" width="30" height="8" rx="2" fill="white"/>
<rect x="37.4609" y="56.4609" width="30" height="8" rx="2" transform="rotate(-90 37.4609 56.4609)" fill="white"/>
</g>
<defs>
<filter id="filter0_d_151_1706" x="-4" y="0" width="90.9219" height="90.9199" filterUnits="userSpaceOnUse" color-interpolation-filters="sRGB">
<feFlood flood-opacity="0" result="BackgroundImageFix"/>
<feColorMatrix in="SourceAlpha" type="matrix" values="0 0 0 0 0 0 0 0 0 0 0 0 0 0 0 0 0 0 127 0" result="hardAlpha"/>
<feOffset dy="4"/>
<feGaussianBlur stdDeviation="2"/>
<feComposite in2="hardAlpha" operator="out"/>
<feColorMatrix type="matrix" values="0 0 0 0 0 0 0 0 0 0 0 0 0 0 0 0 0 0 0.25 0"/>
<feBlend mode="normal" in2="BackgroundImageFix" result="effect1_dropShadow_151_1706"/>
<feBlend mode="normal" in="SourceGraphic" in2="effect1_dropShadow_151_1706" result="shape"/>
</filter>
</defs>
</svg>
